Data Wrangling in the tidyverse
…
Keeping/dropping columns

Keep columns with select():

select(districts, system, system_name)

The first argument to select() is a data frame, and the second is the column(s) you want to keep, separated by commas.

Keeping/dropping columns

Keep columns with select():

select(districts, system, system_name)

## # A tibble: 146 x 2
##    system system_name       
##     <dbl> <chr>             
##  1      0 State of Tennessee
##  2     10 Anderson County   
##  3     11 Clinton City      
##  4     12 Oak Ridge City    
##  5     20 Bedford County    
##  6     30 Benton County     
##  7     40 Bledsoe County    
##  8     50 Blount County     
##  9     51 Alcoa City        
## 10     52 Maryville City    
## #  with 136 more rows

Keeping/dropping columns

Drop columns with select() using - before a column name:

select(districts, -system)

## # A tibble: 146 x 26
##    system_name alg_1 alg_2   bio  chem   ela eng_1 eng_2 eng_3
##    <chr>       <dbl> <dbl> <dbl> <dbl> <dbl> <dbl> <dbl> <dbl>
##  1 State of T  70    54.3  65.3  44.2  48.4  71.8  64.8  41.7
##  2 Anderson C  76.1  63.3  73.6  41    45.7  73.7  59.2  38.2
##  3 Clinton Ci  NA    NA    NA    NA    58.3  NA    NA    NA  
##  4 Oak Ridge   76.9  72    83.5  80.9  56.1  86.7  74.6  53.8
##  5 Bedford Co  64.3  42.4  62.1  32.5  44.1  72.3  63.1  44.6
##  6 Benton Cou  73.7  58.4  77.1  33.1  46    75.4  60.8  45.6
##  7 Bledsoe Co  64.8  73.9  73    19.5  35.4  63.6  53.3  50  
##  8 Blount Cou  73.2  59.8  65.1  45.4  46.3  71.8  66    45.3
##  9 Alcoa City   82.2  76.8  88    66    50.2  85.5  79.6  67.2
## 10 Maryville   83.8  77.3  92.1  80.4  69.6  89.9  82.7  68.1
## #  with 136 more rows, and 17 more variables: math <dbl>,
## #   science <dbl>, enrollment <dbl>, black <dbl>,
## #   hispanic <dbl>, native <dbl>, el <dbl>, swd <dbl>, ed <dbl>,
## #   expenditures <dbl>, act_composite <dbl>, chronic_abs <dbl>,
## #   suspended <dbl>, expelled <dbl>, grad <dbl>, dropout <dbl>,
## #   region <chr>
…
ends_with()

contains()

one_of() if you need to specify columns as a string

everything()

Reordering columns

Reorder columns with select() by listing columns in the order you want:

select(districts, system, system_name, region, everything())

## # A tibble: 146 x 27
##    system system_name region alg_1 alg_2   bio  chem   ela eng_1
##     <dbl> <chr>       <chr>  <dbl> <dbl> <dbl> <dbl> <dbl> <dbl>
##  1      0 State of T <NA>    70    54.3  65.3  44.2  48.4  71.8
##  2     10 Anderson C East   76.1  63.3  73.6  41    45.7  73.7
##  3     11 Clinton Ci East   NA    NA    NA    NA    58.3  NA  
##  4     12 Oak Ridge  East   76.9  72    83.5  80.9  56.1  86.7
##  5     20 Bedford Co South  64.3  42.4  62.1  32.5  44.1  72.3
##  6     30 Benton Cou North  73.7  58.4  77.1  33.1  46    75.4
##  7     40 Bledsoe Co Upper  64.8  73.9  73    19.5  35.4  63.6
##  8     50 Blount Cou East   73.2  59.8  65.1  45.4  46.3  71.8
##  9     51 Alcoa City  East   82.2  76.8  88    66    50.2  85.5
## 10     52 Maryville  East   83.8  77.3  92.1  80.4  69.6  89.9
## #  with 136 more rows, and 18 more variables: eng_2 <dbl>,
## #   eng_3 <dbl>, math <dbl>, science <dbl>, enrollment <dbl>,
## #   black <dbl>, hispanic <dbl>, native <dbl>, el <dbl>,
## #   swd <dbl>, ed <dbl>, expenditures <dbl>,
## #   act_composite <dbl>, chronic_abs <dbl>, suspended <dbl>,
## #   expelled <dbl>, grad <dbl>, dropout <dbl>
…
Keeping/dropping observations

Drop observations with filter() by negating a logical condition:

filter(districts, system_name != "State of Tennessee")

## # A tibble: 145 x 27
##    system system_name alg_1 alg_2   bio  chem   ela eng_1 eng_2
##     <dbl> <chr>       <dbl> <dbl> <dbl> <dbl> <dbl> <dbl> <dbl>
##  1     10 Anderson C  76.1  63.3  73.6  41    45.7  73.7  59.2
##  2     11 Clinton Ci  NA    NA    NA    NA    58.3  NA    NA  
##  3     12 Oak Ridge   76.9  72    83.5  80.9  56.1  86.7  74.6
##  4     20 Bedford Co  64.3  42.4  62.1  32.5  44.1  72.3  63.1
##  5     30 Benton Cou  73.7  58.4  77.1  33.1  46    75.4  60.8
##  6     40 Bledsoe Co  64.8  73.9  73    19.5  35.4  63.6  53.3
##  7     50 Blount Cou  73.2  59.8  65.1  45.4  46.3  71.8  66  
##  8     51 Alcoa City   82.2  76.8  88    66    50.2  85.5  79.6
##  9     52 Maryville   83.8  77.3  92.1  80.4  69.6  89.9  82.7
## 10     60 Bradley Co  NA    59.5  64.1  55.7  52.4  74.4  66.3
## #  with 135 more rows, and 18 more variables: eng_3 <dbl>,
## #   math <dbl>, science <dbl>, enrollment <dbl>, black <dbl>,
## #   hispanic <dbl>, native <dbl>, el <dbl>, swd <dbl>, ed <dbl>,
## #   expenditures <dbl>, act_composite <dbl>, chronic_abs <dbl>,
## #   suspended <dbl>, expelled <dbl>, grad <dbl>, dropout <dbl>,
## #   region <chr>
…
The second is the value of the new column if the logical condition is TRUE.

The third is the value of the column if the logical condition is FALSE.

If the logical condition returns NA, the value of the column will be NA.

if_else() with mutate()

Use if_else() if you want a column to take different values under different conditions:

mutate(districts,
    district_size = if_else(enrollment >= 10000, "Large", "Small"))

## # A tibble: 146 x 3
##    system_name        enrollment district_size
##    <chr>                   <dbl> <chr>        
##  1 State of Tennessee     943699 Large        
##  2 Anderson County          6304 Small        
##  3 Clinton City              894 Small        
##  4 Oak Ridge City           4326 Small        
##  5 Bedford County           8270 Small        
##  6 Benton County            2133 Small        
##  7 Bledsoe County           1674 Small        
##  8 Blount County           10500 Large        
##  9 Alcoa City               1850 Small        
## 10 Maryville City           4944 Small        
## #  with 136 more rows
…
The third if_else() assigns "Small" to district_size if enrollment is less than 5000, and leaves district_size the same otherwise.

if_else() with mutate()

mutate(districts,
    district_size = if_else(enrollment >= 10000, "Large", NA_character_),
    district_size = if_else(enrollment >= 5000 & enrollment < 10000,
        "Medium", district_size),
    district_size = if_else(enrollment < 5000, "Small", district_size)
)

## # A tibble: 146 x 3
##    system_name        enrollment district_size
##    <chr>                   <dbl> <chr>        
##  1 State of Tennessee     943699 Large        
##  2 Anderson County          6304 Medium       
##  3 Clinton City              894 Small        
##  4 Oak Ridge City           4326 Small        
##  5 Bedford County           8270 Medium       
##  6 Benton County            2133 Small        
##  7 Bledsoe County           1674 Small        
##  8 Blount County           10500 Large        
##  9 Alcoa City               1850 Small        
## 10 Maryville City           4944 Small        
## #  with 136 more rows
…
Exercise 2

Create a new column called math_achievement with a value of:

"High" if a districts Math proficiency is 75% or higher;

"Medium" if a districts Math proficiency is between 50% and 75%;

"Low" if a districts Math proficiency is below 50%.

## # A tibble: 146 x 3
##    system_name         math math_achievement
##    <chr>              <dbl> <chr>           
##  1 State of Tennessee  54.7 Medium          
##  2 Anderson County     54   Medium          
##  3 Clinton City        68.9 Medium          
##  4 Oak Ridge City      55.3 Medium          
##  5 Bedford County      53.1 Medium          
##  6 Benton County       53.9 Medium          
##  7 Bledsoe County      41.1 Low             
##  8 Blount County       50.5 Medium          
##  9 Alcoa City          56.6 Medium          
## 10 Maryville City      70.2 Medium          
## #  with 136 more rows
…
Renaming columns

Rename columns with rename():

rename(districts, district = system)

The first argument to rename() is a data frame, followed by pairs of names with the pattern new_name = old_name.

Renaming columns

Rename columns with rename():

rename(districts, district = system)

## # A tibble: 146 x 27
##    district system_name alg_1 alg_2   bio  chem   ela eng_1 eng_2
##       <dbl> <chr>       <dbl> <dbl> <dbl> <dbl> <dbl> <dbl> <dbl>
##  1        0 State of T  70    54.3  65.3  44.2  48.4  71.8  64.8
##  2       10 Anderson C  76.1  63.3  73.6  41    45.7  73.7  59.2
##  3       11 Clinton Ci  NA    NA    NA    NA    58.3  NA    NA  
##  4       12 Oak Ridge   76.9  72    83.5  80.9  56.1  86.7  74.6
##  5       20 Bedford Co  64.3  42.4  62.1  32.5  44.1  72.3  63.1
##  6       30 Benton Cou  73.7  58.4  77.1  33.1  46    75.4  60.8
##  7       40 Bledsoe Co  64.8  73.9  73    19.5  35.4  63.6  53.3
##  8       50 Blount Cou  73.2  59.8  65.1  45.4  46.3  71.8  66  
##  9       51 Alcoa City   82.2  76.8  88    66    50.2  85.5  79.6
## 10       52 Maryville   83.8  77.3  92.1  80.4  69.6  89.9  82.7
## #  with 136 more rows, and 18 more variables: eng_3 <dbl>,
## #   math <dbl>, science <dbl>, enrollment <dbl>, black <dbl>,
## #   hispanic <dbl>, native <dbl>, el <dbl>, swd <dbl>, ed <dbl>,
## #   expenditures <dbl>, act_composite <dbl>, chronic_abs <dbl>,
## #   suspended <dbl>, expelled <dbl>, grad <dbl>, dropout <dbl>,
## #   region <chr>

Renaming columns

Column names can contain spaces and other characters. Put backticks (``) around a name if it contains spaces.

rename(districts,
    district = system, 
    `district name` = system_name
)

## # A tibble: 146 x 27
##    district `district name` alg_1 alg_2   bio  chem   ela eng_1
##       <dbl> <chr>           <dbl> <dbl> <dbl> <dbl> <dbl> <dbl>
##  1        0 State of Tenne  70    54.3  65.3  44.2  48.4  71.8
##  2       10 Anderson County  76.1  63.3  73.6  41    45.7  73.7
##  3       11 Clinton City     NA    NA    NA    NA    58.3  NA  
##  4       12 Oak Ridge City   76.9  72    83.5  80.9  56.1  86.7
##  5       20 Bedford County   64.3  42.4  62.1  32.5  44.1  72.3
##  6       30 Benton County    73.7  58.4  77.1  33.1  46    75.4
##  7       40 Bledsoe County   64.8  73.9  73    19.5  35.4  63.6
##  8       50 Blount County    73.2  59.8  65.1  45.4  46.3  71.8
##  9       51 Alcoa City       82.2  76.8  88    66    50.2  85.5
## 10       52 Maryville City   83.8  77.3  92.1  80.4  69.6  89.9
## #  with 136 more rows, and 19 more variables: eng_2 <dbl>,
## #   eng_3 <dbl>, math <dbl>, science <dbl>, enrollment <dbl>,
## #   black <dbl>, hispanic <dbl>, native <dbl>, el <dbl>,
## #   swd <dbl>, ed <dbl>, expenditures <dbl>,
## #   act_composite <dbl>, chronic_abs <dbl>, suspended <dbl>,
## #   expelled <dbl>, grad <dbl>, dropout <dbl>, region <chr>
…
Sorting a data frame

Sort a data frame with arrange():

arrange(districts, system_name)

The first argument to arrange() is a data frame, and the second is the column(s) you want to sort on.

Sorting a data frame

Sort a data frame with arrange():

arrange(districts, system_name)

## # A tibble: 146 x 27
##    system system_name alg_1 alg_2   bio  chem   ela eng_1 eng_2
##     <dbl> <chr>       <dbl> <dbl> <dbl> <dbl> <dbl> <dbl> <dbl>
##  1    985 Achievemen  34    20.4  20.6  NA    14.3  37.8  33  
##  2    171 Alamo City   NA    NA    NA    NA    53.5  NA    NA  
##  3     51 Alcoa City   82.2  76.8  88    66    50.2  85.5  79.6
##  4    961 Alvin C. Y  79.5  69.8  70.4  24.3  NA    72.4  66  
##  5     10 Anderson C  76.1  63.3  73.6  41    45.7  73.7  59.2
##  6    793 Arlington   88    66.9  82.5  49.8  75.7  88.8  78.1
##  7    541 Athens City 100    NA    NA    NA    52.9  NA    NA  
##  8    794 Bartlett C  78.1  59.5  71.8  36.2  60.6  80.3  74.6
##  9     20 Bedford Co  64.3  42.4  62.1  32.5  44.1  72.3  63.1
## 10    172 Bells City   NA    NA    NA    NA    60.8  NA    NA  
## #  with 136 more rows, and 18 more variables: eng_3 <dbl>,
## #   math <dbl>, science <dbl>, enrollment <dbl>, black <dbl>,
## #   hispanic <dbl>, native <dbl>, el <dbl>, swd <dbl>, ed <dbl>,
## #   expenditures <dbl>, act_composite <dbl>, chronic_abs <dbl>,
## #   suspended <dbl>, expelled <dbl>, grad <dbl>, dropout <dbl>,
## #   region <chr>

Sorting a data frame

arrange() sorts numeric columns in ascending order and string columns alphabetically; reverse this with desc(var_name).

arrange(districts, desc(system_name))

## # A tibble: 146 x 27
##    system system_name alg_1 alg_2   bio  chem   ela eng_1 eng_2
##     <dbl> <chr>       <dbl> <dbl> <dbl> <dbl> <dbl> <dbl> <dbl>
##  1    950 Wilson Cou  69.8  58    74.1  45.4  60.6  78.1  76.1
##  2    940 Williamson  90.3  84.8  89.2  81    80.7  92.9  88.7
##  3    930 White Coun  80.3  58.6  82.8  20.2  47.2  78.5  72.1
##  4    960 West Tenn   NA    NA    NA    NA    NA    NA    NA  
##  5     97 West Carro  60.8  54.5  73.8  66    40.9  79.1  67.5
##  6    920 Weakley Co  79.3  64.3  81.2  50.7  55.4  83.6  71.7
##  7    910 Wayne Coun  71.8  56    69.5  29.7  36.9  78.1  68.9
##  8    900 Washington  67    48.7  67.6  58.9  55    74.4  67.9
##  9    890 Warren Cou  NA    NA    57.3  34.7  43.7  72.5  60.7
## 10    880 Van Buren   68.3  68.5  49.2  32.8  35.8  62.3  57.7
## #  with 136 more rows, and 18 more variables: eng_3 <dbl>,
## #   math <dbl>, science <dbl>, enrollment <dbl>, black <dbl>,
## #   hispanic <dbl>, native <dbl>, el <dbl>, swd <dbl>, ed <dbl>,
## #   expenditures <dbl>, act_composite <dbl>, chronic_abs <dbl>,
## #   suspended <dbl>, expelled <dbl>, grad <dbl>, dropout <dbl>,
## #   region <chr>

Exercise 5

Sort districts alphabetically by region, then by Algebra I proficiency in descending order. Then, keep the district name, Algebra I proficiency, and region columns.

districts %>%
    arrange(region, desc(alg_1)) %>%
    select(system_name, alg_1, region)

## # A tibble: 146 x 3
##    system_name      alg_1 region 
##    <chr>            <dbl> <chr>  
##  1 Maryville City    83.8 East TN
##  2 Alcoa City        82.2 East TN
##  3 Jefferson County  80.4 East TN
##  4 Oak Ridge City    76.9 East TN
##  5 Anderson County   76.1 East TN
##  6 Oneida SSD        74.1 East TN
##  7 Blount County     73.2 East TN
##  8 Knox County       73.1 East TN
##  9 Loudon County     71.9 East TN
## 10 Campbell County   71.6 East TN
## #  with 136 more rows
…
districts %>%
    mutate(math_mean = mean(math, na.rm = TRUE))

This calculates the mean of Math %P/A, and creates a column Math_mean with that value across all observations.

Add summary statistics to a data frame

Instead of collapsing, you might want to add summary statistics as columns to a data frame.

Do this with mutate():

districts %>%
    mutate(math_mean = mean(math, na.rm = TRUE))

## # A tibble: 146 x 3
##    system_name         math math_mean
##    <chr>              <dbl>     <dbl>
##  1 State of Tennessee  54.7      55.5
##  2 Anderson County     54        55.5
##  3 Clinton City        68.9      55.5
##  4 Oak Ridge City      55.3      55.5
##  5 Bedford County      53.1      55.5
##  6 Benton County       53.9      55.5
##  7 Bledsoe County      41.1      55.5
##  8 Blount County       50.5      55.5
##  9 Alcoa City          56.6      55.5
## 10 Maryville City      70.2      55.5
## #  with 136 more rows
…
districts %>%
    filter(system_name != "State of Tennessee") %>%
    mutate(
        median_pct_ed = median(ed, na.rm = TRUE),
        median_math = median(math, na.rm = TRUE)
    ) %>%
    filter(ed > median_pct_ed & math > median_math) %>%
    select(system_name, math, median_math)

Exercise 7

Identify districts with a higher Percent ED than the median district, and a higher Math proficiency than the median district.

## # A tibble: 22 x 3
##    system_name        math median_math
##    <chr>             <dbl>       <dbl>
##  1 Clinton City       68.9        55.3
##  2 South Carroll SSD  58.1        55.3
##  3 Cocke County       59.1        55.3
##  4 Crockett County    57.2        55.3
##  5 Alamo City         62.8        55.3
##  6 Bells City         60.8        55.3
##  7 Cumberland County  58.9        55.3
##  8 Dyersburg City     57.4        55.3
##  9 Milan SSD          69.4        55.3
## 10 Trenton SSD        62.9        55.3
## #  with 12 more rows

Add summary statistics to a data frame

Use group_by() to calculate summary statistics by group:

districts %>%
    group_by(region) %>%
    mutate(math_mean = mean(math, na.rm = TRUE)) %>%
    ungroup() %>%
    select(system_name, region, math, math_mean)

## # A tibble: 146 x 4
##    system_name        region            math math_mean
##    <chr>              <chr>            <dbl>     <dbl>
##  1 State of Tennessee <NA>              54.7      54.7
##  2 Anderson County    East TN           54        51.6
##  3 Clinton City       East TN           68.9      51.6
##  4 Oak Ridge City     East TN           55.3      51.6
##  5 Bedford County     South Central     53.1      55.0
##  6 Benton County      Northwest         53.9      58.7
##  7 Bledsoe County     Upper Cumberland  41.1      50.7
##  8 Blount County      East TN           50.5      51.6
##  9 Alcoa City         East TN           56.6      51.6
## 10 Maryville City     East TN           70.2      51.6
## #  with 136 more rows
…
Identify districts with a higher dropout rate than the average of districts in the same region.

districts %>%
    group_by(region) %>%
    mutate(dropout_mean = mean(dropout, na.rm = TRUE)) %>%
    ungroup() %>%
    filter(dropout > dropout_mean) %>%
    select(system_name, region, dropout, dropout_mean)

Exercise 8

Identify districts with a higher dropout rate than the average of districts in the same region.

## # A tibble: 58 x 4
##    system_name     region           dropout dropout_mean
##    <chr>           <chr>              <dbl>        <dbl>
##  1 Bledsoe County  Upper Cumberland     6.9         5.42
##  2 Blount County   East TN              9.2         5.41
##  3 Cleveland City  Southeast           12.3         7.36
##  4 Carter County   First TN             8           4.63
##  5 Cheatham County Mid Cumberland       5.9         5.26
##  6 Coffee County   South Central        6.4         6.05
##  7 Tullahoma City  South Central        6.3         6.05
##  8 Davidson County Mid Cumberland      14.6         5.26
##  9 Dickson County  Mid Cumberland       7.4         5.26
## 10 Dyersburg City  Northwest           12.5         5.61
## #  with 48 more rows

Operations by row

Suppose you want the average of a districts Algebra I and Algebra II proficiency rates.

## # A tibble: 146 x 3
##    system_name        alg_1 alg_2
##    <chr>              <dbl> <dbl>
##  1 State of Tennessee  70    54.3
##  2 Anderson County     76.1  63.3
##  3 Clinton City        NA    NA  
##  4 Oak Ridge City      76.9  72  
##  5 Bedford County      64.3  42.4
##  6 Benton County       73.7  58.4
##  7 Bledsoe County      64.8  73.9
##  8 Blount County       73.2  59.8
##  9 Alcoa City          82.2  76.8
## 10 Maryville City      83.8  77.3
## #  with 136 more rows

Operations by row

You might do the following:

districts %>%
    select(system_name, alg_1, alg_2) %>%
    mutate(alg_mean = (alg_I + alg_II)/2)

## # A tibble: 146 x 4
##    system_name        alg_1 alg_2 alg_mean
##    <chr>              <dbl> <dbl>    <dbl>
##  1 State of Tennessee  70    54.3     62.2
##  2 Anderson County     76.1  63.3     69.7
##  3 Clinton City        NA    NA       NA  
##  4 Oak Ridge City      76.9  72       74.4
##  5 Bedford County      64.3  42.4     53.4
##  6 Benton County       73.7  58.4     66.0
##  7 Bledsoe County      64.8  73.9     69.4
##  8 Blount County       73.2  59.8     66.5
##  9 Alcoa City          82.2  76.8     79.5
## 10 Maryville City      83.8  77.3     80.6
## #  with 136 more rows
…
